module gitlab.com/anangnov/golang-sample-api

go 1.16

require (
	github.com/dgrijalva/jwt-go v3.2.0+incompatible // indirect
	github.com/gin-gonic/gin v1.7.4 // indirect
	github.com/joho/godotenv v1.3.0 // indirect
	github.com/mattn/go-isatty v0.0.12 // indirect
	golang.org/x/crypto v0.0.0-20210817164053-32db794688a5 // indirect
	gorm.io/driver/mysql v1.1.2 // indirect
	gorm.io/gorm v1.21.14 // indirect
)
